com\texoit\MovieControllerIntegrationTest.class
com\texoit\StudioControllerIntegrationTest.class
com\texoit\GoldenRaspberryAwardsApplicationTests.class
com\texoit\ProducerControllerIntegrationTest.class
